<svg width="50" height="52" viewBox="0 0 50 52" fill="none" xmlns="http://www.w3.org/2000/svg">
<ellipse cx="25" cy="25.5952" rx="25" ry="25.5952" fill="#004E9A"/>
<path fill-rule="evenodd" clip-rule="evenodd" d="M15.25 17.875C15.25 16.9775 15.9775 16.25 16.875 16.25H33.125C34.0225 16.25 34.75 16.9775 34.75 17.875V34.125C34.75 35.0225 34.0225 35.75 33.125 35.75H16.875C15.9775 35.75 15.25 35.0225 15.25 34.125V17.875ZM33.125 17.875H16.875V34.125H33.125V17.875Z" fill="white"/>
<path fill-rule="evenodd" clip-rule="evenodd" d="M29.875 14.625C30.3237 14.625 30.6875 14.9888 30.6875 15.4375V18.6875C30.6875 19.1362 30.3237 19.5 29.875 19.5C29.4263 19.5 29.0625 19.1362 29.0625 18.6875V15.4375C29.0625 14.9888 29.4263 14.625 29.875 14.625Z" fill="white"/>
<path fill-rule="evenodd" clip-rule="evenodd" d="M20.125 14.625C20.5737 14.625 20.9375 14.9888 20.9375 15.4375V18.6875C20.9375 19.1362 20.5737 19.5 20.125 19.5C19.6763 19.5 19.3125 19.1362 19.3125 18.6875V15.4375C19.3125 14.9888 19.6763 14.625 20.125 14.625Z" fill="white"/>
<path fill-rule="evenodd" clip-rule="evenodd" d="M15.25 21.9375C15.25 21.4888 15.6138 21.125 16.0625 21.125H33.9375C34.3862 21.125 34.75 21.4888 34.75 21.9375C34.75 22.3862 34.3862 22.75 33.9375 22.75H16.0625C15.6138 22.75 15.25 22.3862 15.25 21.9375Z" fill="white"/>
<path fill-rule="evenodd" clip-rule="evenodd" d="M30.1375 24.9515C30.4474 25.2761 30.4354 25.7904 30.1108 26.1002L24.1524 31.7877C23.8385 32.0874 23.3444 32.0874 23.0304 31.7877L20.0513 28.944C19.7267 28.6341 19.7147 28.1198 20.0246 27.7952C20.3344 27.4707 20.8487 27.4587 21.1733 27.7685L23.5914 30.0768L28.9888 24.9248C29.3134 24.6149 29.8277 24.6269 30.1375 24.9515Z" fill="white"/>
</svg>
