<svg width="42" height="43" viewBox="0 0 42 43" fill="none" xmlns="http://www.w3.org/2000/svg">
<ellipse cx="21" cy="21.5" rx="21" ry="21.5" fill="#999999"/>
<path d="M25.5298 13V21.6471L22.6469 19.4853L19.7651 21.6471V13" stroke="white" stroke-width="1.5" stroke-linecap="round" stroke-linejoin="round"/>
<path d="M14 29.5735C14 29.0002 14.2278 28.4503 14.6332 28.0449C15.0386 27.6395 15.5884 27.4118 16.1618 27.4118H28.4118V13H16.1618C15.5884 13 15.0386 13.2278 14.6332 13.6332C14.2278 14.0386 14 14.5884 14 15.1618V29.5735Z" stroke="white" stroke-width="1.8" stroke-linecap="round" stroke-linejoin="round"/>
<path d="M14 29.5735V30.2941H26.9706" stroke="white" stroke-width="1.8" stroke-linecap="round" stroke-linejoin="round"/>
</svg>
