<svg version="1.1" id="Layer_1" xmlns="http://www.w3.org/2000/svg" xmlns:xlink="http://www.w3.org/1999/xlink" x="0px" y="0px"
	 width="516px" height="78px" viewBox="0 0 516 78" style="enable-background:new 0 0 516 78;" xml:space="preserve">
<defs>
<style>

svg {
  
  margin :0 auto; max-width:300px; height:100%;
  stroke-width:1;stroke-miterlimit:10;stroke:#ededed;
}
#rect {
  animation: slideOver 3s linear infinite;
  left: 50%;
  position: absolute;
  top: 0%;
  transform: translate(-50%,-50%);
}

@keyframes slideOver {
  0% {
    transform: translateX(0);
  }
  100% {
    transform: translateX(100%);
  }
}
<!-- .st0{fill:none;stroke:#101010;stroke-width:2;stroke-miterlimit:10;transition: 0.4s ease-in-out}
	.st0{
			stroke-dasharray: 400;
			stroke-dashoffset: 0;
			-webkit-animation: dash 4s infinite;
			-o-animation: dash 4s infinite;
			-moz-animation: dash 4s infinite;
			animation: dash 4s infinite;
			
		}
		@-webkit-keyframes dash{
			0%{
				stroke-dashoffset: 400;
				fill: #fff;
			}
			70%{
				fill: #fff;
			}
			100%{
				stroke-dashoffset: 0;
				fill: #101010;
			}
		}
		#Layer_1 {margin :0 auto; max-width:300px; height:100%;} -->
		
</style>

</defs>
<clipPath id="clip-path">
      <rect id="rect" x="0" y="0" height="100" width="500"/>
    </clipPath>
<path fill="#101010" class="st0" d="M13.008,70l0.949-58.289h15.539l5.309,29.988l5.906-29.988h14.906L56.566,70h-9.914l-1.125-37.793L39.586,70
	H30.48l-6.434-38.145L23.098,70H13.008z M61.938,70l10.582-58.289h16.594L99.591,70H86.548L84.72,58.363h-7.559L75.403,70H61.938z
	 M78.286,50.137h5.238l-2.637-21.762L78.286,50.137z M121.17,70.914c-5.766,0-10.014-1.453-12.744-4.359
	c-2.73-2.906-4.178-7.757-4.342-14.555l12.094-1.582c0,1.922,0.105,3.539,0.316,4.852c0.211,1.313,0.516,2.315,0.914,3.006
	c0.398,0.691,0.826,1.178,1.283,1.459s0.99,0.422,1.6,0.422c1.594,0,2.391-1.148,2.391-3.445c0-2.25-0.51-4.184-1.529-5.801
	s-2.654-3.387-4.904-5.309l-3.691-3.129c-1.336-1.148-2.432-2.167-3.287-3.059c-0.856-0.891-1.723-1.986-2.602-3.287
	s-1.529-2.736-1.951-4.307c-0.422-1.57-0.633-3.316-0.633-5.238c0-5.039,1.517-8.924,4.553-11.654
	c3.035-2.73,7.225-4.107,12.568-4.131c9.563,0,14.379,5.672,14.449,17.016l-12.375,1.23c0-1.523-0.018-2.666-0.053-3.428
	c-0.035-0.761-0.135-1.547-0.299-2.355s-0.428-1.371-0.791-1.688s-0.85-0.475-1.459-0.475c-0.867,0.023-1.523,0.48-1.969,1.371
	c-0.445,0.891-0.668,1.793-0.668,2.707c0,0.492,0.041,0.973,0.123,1.441c0.082,0.469,0.158,0.885,0.229,1.248
	c0.07,0.364,0.223,0.762,0.457,1.195c0.234,0.434,0.41,0.779,0.527,1.037c0.117,0.258,0.352,0.598,0.703,1.02
	s0.586,0.715,0.703,0.879c0.117,0.164,0.398,0.457,0.844,0.879s0.715,0.674,0.809,0.756c0.094,0.083,0.398,0.352,0.914,0.809
	s0.797,0.709,0.844,0.756l3.375,2.988c1.43,1.289,2.643,2.496,3.639,3.621s1.951,2.42,2.865,3.885
	c0.914,1.465,1.6,3.059,2.057,4.781s0.686,3.581,0.686,5.572c0,4.196-1.436,7.723-4.307,10.582
	C129.637,69.485,125.857,70.914,121.17,70.914z M147.987,70V22.258h-8.508V11.711h31.254v10.547h-8.473V70H147.987z M175.613,70
	V11.711h27.281v9.563h-13.008v13.008h9.703v9.914h-9.703v16.277h13.148V70H175.613z M208.407,70V11.711h17.402
	c2.484,0,4.682,0.129,6.592,0.387c1.91,0.258,3.738,0.727,5.484,1.406c1.746,0.68,3.176,1.588,4.289,2.725
	c1.113,1.137,1.998,2.614,2.654,4.43c0.656,1.816,0.984,3.955,0.984,6.416c0,3.915-0.492,7.031-1.477,9.352s-2.871,4.207-5.66,5.66
	L246.622,70h-14.941l-6.047-25.77h-2.953V70H208.407z M222.681,36.391h3.727c2.344,0,3.967-0.673,4.869-2.021
	c0.902-1.348,1.354-3.264,1.354-5.748c0-2.391-0.428-4.236-1.283-5.537s-2.268-1.951-4.236-1.951h-4.43V36.391z M269.011,70.914
	c-5.766,0-10.014-1.453-12.744-4.359c-2.73-2.906-4.178-7.757-4.342-14.555l12.094-1.582c0,1.922,0.105,3.539,0.316,4.852
	c0.211,1.313,0.516,2.315,0.914,3.006c0.398,0.691,0.826,1.178,1.283,1.459s0.99,0.422,1.6,0.422c1.594,0,2.391-1.148,2.391-3.445
	c0-2.25-0.51-4.184-1.529-5.801s-2.654-3.387-4.904-5.309l-3.691-3.129c-1.336-1.148-2.432-2.167-3.287-3.059
	c-0.855-0.891-1.723-1.986-2.602-3.287s-1.529-2.736-1.951-4.307c-0.422-1.57-0.633-3.316-0.633-5.238
	c0-5.039,1.518-8.924,4.553-11.654c3.035-2.73,7.225-4.107,12.568-4.131c9.563,0,14.379,5.672,14.449,17.016l-12.375,1.23
	c0-1.523-0.018-2.666-0.053-3.428c-0.035-0.761-0.135-1.547-0.299-2.355s-0.428-1.371-0.791-1.688s-0.85-0.475-1.459-0.475
	c-0.867,0.023-1.523,0.48-1.969,1.371c-0.445,0.891-0.668,1.793-0.668,2.707c0,0.492,0.041,0.973,0.123,1.441
	c0.082,0.469,0.158,0.885,0.229,1.248c0.07,0.364,0.223,0.762,0.457,1.195c0.234,0.434,0.41,0.779,0.527,1.037
	c0.117,0.258,0.352,0.598,0.703,1.02s0.586,0.715,0.703,0.879c0.117,0.164,0.398,0.457,0.844,0.879s0.715,0.674,0.809,0.756
	c0.094,0.083,0.398,0.352,0.914,0.809s0.797,0.709,0.844,0.756l3.375,2.988c1.43,1.289,2.643,2.496,3.639,3.621
	s1.951,2.42,2.865,3.885c0.914,1.465,1.6,3.059,2.057,4.781s0.686,3.581,0.686,5.572c0,4.196-1.436,7.723-4.307,10.582
	C277.478,69.485,273.698,70.914,269.011,70.914z M292.348,32.559l-0.703-3.938c1.805,0,3.006-0.521,3.604-1.564
	c0.598-1.042,0.896-2.514,0.896-4.412h-5.344V11.711h10.898c0,3.422-0.047,6.165-0.141,8.227c-0.117,2.25-0.328,4.113-0.633,5.59
	s-0.797,2.772-1.477,3.885c-0.68,1.113-1.6,1.916-2.76,2.408S294.082,32.559,292.348,32.559z M343.311,70.914
	c-3.375,0-6.211-0.381-8.508-1.143s-4.125-1.945-5.484-3.551c-1.359-1.605-2.326-3.521-2.9-5.748
	c-0.574-2.227-0.861-4.922-0.861-8.086V11.711h14.203v43.066c0,0.797,0.035,1.477,0.105,2.039s0.211,1.178,0.422,1.846
	s0.574,1.184,1.09,1.547c0.516,0.364,1.16,0.545,1.934,0.545s1.418-0.181,1.934-0.545c0.516-0.363,0.879-0.879,1.09-1.547
	s0.346-1.283,0.404-1.846s0.088-1.242,0.088-2.039V11.711h14.238v40.676c0,3.164-0.293,5.859-0.879,8.086
	c-0.586,2.227-1.553,4.143-2.9,5.748c-1.348,1.605-3.176,2.79-5.484,3.551S346.662,70.914,343.311,70.914z M368.862,70V11.711
	h10.125l10.652,24.961V11.711h11.777V70h-9.738l-10.582-27.422V70H368.862z M409.637,70V11.711h14.238V70H409.637z M457.882,69.631
	c-2.355,0.855-5.197,1.283-8.525,1.283s-6.164-0.428-8.508-1.283s-4.207-2.132-5.59-3.832c-1.383-1.699-2.379-3.703-2.988-6.012
	c-0.609-2.308-0.914-5.033-0.914-8.174V30.098c0-3.141,0.305-5.865,0.914-8.174c0.609-2.308,1.605-4.312,2.988-6.012
	c1.383-1.699,3.246-2.976,5.59-3.832c2.344-0.855,5.18-1.283,8.508-1.283s6.17,0.428,8.525,1.283
	c2.355,0.856,4.23,2.133,5.625,3.832c1.395,1.7,2.402,3.704,3.023,6.012c0.621,2.309,0.932,5.033,0.932,8.174v21.516
	c0,3.141-0.311,5.866-0.932,8.174c-0.621,2.309-1.629,4.313-3.023,6.012C462.112,67.499,460.237,68.775,457.882,69.631z
	 M449.356,61.035c0.773,0,1.406-0.17,1.898-0.51c0.492-0.339,0.844-0.838,1.055-1.494c0.211-0.656,0.346-1.253,0.404-1.793
	c0.059-0.539,0.088-1.207,0.088-2.004V26.441c0-0.796-0.029-1.464-0.088-2.004c-0.059-0.539-0.193-1.13-0.404-1.775
	c-0.211-0.645-0.563-1.137-1.055-1.477c-0.492-0.339-1.125-0.51-1.898-0.51c-0.633,0-1.172,0.129-1.617,0.387
	c-0.445,0.258-0.779,0.557-1.002,0.896c-0.223,0.34-0.393,0.809-0.51,1.406s-0.182,1.09-0.193,1.477s-0.018,0.92-0.018,1.6v28.793
	c0,0.656,0.006,1.184,0.018,1.582c0.012,0.399,0.076,0.896,0.193,1.494s0.287,1.067,0.51,1.406c0.223,0.34,0.557,0.645,1.002,0.914
	C448.185,60.9,448.724,61.035,449.356,61.035z M474.908,70V11.711h10.125l10.652,24.961V11.711h11.777V70h-9.738l-10.582-27.422V70
	H474.908z"/>
	<path clip-path="url(#clip-path)" fill="#ededed" class="st0" d="M13.008,70l0.949-58.289h15.539l5.309,29.988l5.906-29.988h14.906L56.566,70h-9.914l-1.125-37.793L39.586,70
	H30.48l-6.434-38.145L23.098,70H13.008z M61.938,70l10.582-58.289h16.594L99.591,70H86.548L84.72,58.363h-7.559L75.403,70H61.938z
	 M78.286,50.137h5.238l-2.637-21.762L78.286,50.137z M121.17,70.914c-5.766,0-10.014-1.453-12.744-4.359
	c-2.73-2.906-4.178-7.757-4.342-14.555l12.094-1.582c0,1.922,0.105,3.539,0.316,4.852c0.211,1.313,0.516,2.315,0.914,3.006
	c0.398,0.691,0.826,1.178,1.283,1.459s0.99,0.422,1.6,0.422c1.594,0,2.391-1.148,2.391-3.445c0-2.25-0.51-4.184-1.529-5.801
	s-2.654-3.387-4.904-5.309l-3.691-3.129c-1.336-1.148-2.432-2.167-3.287-3.059c-0.856-0.891-1.723-1.986-2.602-3.287
	s-1.529-2.736-1.951-4.307c-0.422-1.57-0.633-3.316-0.633-5.238c0-5.039,1.517-8.924,4.553-11.654
	c3.035-2.73,7.225-4.107,12.568-4.131c9.563,0,14.379,5.672,14.449,17.016l-12.375,1.23c0-1.523-0.018-2.666-0.053-3.428
	c-0.035-0.761-0.135-1.547-0.299-2.355s-0.428-1.371-0.791-1.688s-0.85-0.475-1.459-0.475c-0.867,0.023-1.523,0.48-1.969,1.371
	c-0.445,0.891-0.668,1.793-0.668,2.707c0,0.492,0.041,0.973,0.123,1.441c0.082,0.469,0.158,0.885,0.229,1.248
	c0.07,0.364,0.223,0.762,0.457,1.195c0.234,0.434,0.41,0.779,0.527,1.037c0.117,0.258,0.352,0.598,0.703,1.02
	s0.586,0.715,0.703,0.879c0.117,0.164,0.398,0.457,0.844,0.879s0.715,0.674,0.809,0.756c0.094,0.083,0.398,0.352,0.914,0.809
	s0.797,0.709,0.844,0.756l3.375,2.988c1.43,1.289,2.643,2.496,3.639,3.621s1.951,2.42,2.865,3.885
	c0.914,1.465,1.6,3.059,2.057,4.781s0.686,3.581,0.686,5.572c0,4.196-1.436,7.723-4.307,10.582
	C129.637,69.485,125.857,70.914,121.17,70.914z M147.987,70V22.258h-8.508V11.711h31.254v10.547h-8.473V70H147.987z M175.613,70
	V11.711h27.281v9.563h-13.008v13.008h9.703v9.914h-9.703v16.277h13.148V70H175.613z M208.407,70V11.711h17.402
	c2.484,0,4.682,0.129,6.592,0.387c1.91,0.258,3.738,0.727,5.484,1.406c1.746,0.68,3.176,1.588,4.289,2.725
	c1.113,1.137,1.998,2.614,2.654,4.43c0.656,1.816,0.984,3.955,0.984,6.416c0,3.915-0.492,7.031-1.477,9.352s-2.871,4.207-5.66,5.66
	L246.622,70h-14.941l-6.047-25.77h-2.953V70H208.407z M222.681,36.391h3.727c2.344,0,3.967-0.673,4.869-2.021
	c0.902-1.348,1.354-3.264,1.354-5.748c0-2.391-0.428-4.236-1.283-5.537s-2.268-1.951-4.236-1.951h-4.43V36.391z M269.011,70.914
	c-5.766,0-10.014-1.453-12.744-4.359c-2.73-2.906-4.178-7.757-4.342-14.555l12.094-1.582c0,1.922,0.105,3.539,0.316,4.852
	c0.211,1.313,0.516,2.315,0.914,3.006c0.398,0.691,0.826,1.178,1.283,1.459s0.99,0.422,1.6,0.422c1.594,0,2.391-1.148,2.391-3.445
	c0-2.25-0.51-4.184-1.529-5.801s-2.654-3.387-4.904-5.309l-3.691-3.129c-1.336-1.148-2.432-2.167-3.287-3.059
	c-0.855-0.891-1.723-1.986-2.602-3.287s-1.529-2.736-1.951-4.307c-0.422-1.57-0.633-3.316-0.633-5.238
	c0-5.039,1.518-8.924,4.553-11.654c3.035-2.73,7.225-4.107,12.568-4.131c9.563,0,14.379,5.672,14.449,17.016l-12.375,1.23
	c0-1.523-0.018-2.666-0.053-3.428c-0.035-0.761-0.135-1.547-0.299-2.355s-0.428-1.371-0.791-1.688s-0.85-0.475-1.459-0.475
	c-0.867,0.023-1.523,0.48-1.969,1.371c-0.445,0.891-0.668,1.793-0.668,2.707c0,0.492,0.041,0.973,0.123,1.441
	c0.082,0.469,0.158,0.885,0.229,1.248c0.07,0.364,0.223,0.762,0.457,1.195c0.234,0.434,0.41,0.779,0.527,1.037
	c0.117,0.258,0.352,0.598,0.703,1.02s0.586,0.715,0.703,0.879c0.117,0.164,0.398,0.457,0.844,0.879s0.715,0.674,0.809,0.756
	c0.094,0.083,0.398,0.352,0.914,0.809s0.797,0.709,0.844,0.756l3.375,2.988c1.43,1.289,2.643,2.496,3.639,3.621
	s1.951,2.42,2.865,3.885c0.914,1.465,1.6,3.059,2.057,4.781s0.686,3.581,0.686,5.572c0,4.196-1.436,7.723-4.307,10.582
	C277.478,69.485,273.698,70.914,269.011,70.914z M292.348,32.559l-0.703-3.938c1.805,0,3.006-0.521,3.604-1.564
	c0.598-1.042,0.896-2.514,0.896-4.412h-5.344V11.711h10.898c0,3.422-0.047,6.165-0.141,8.227c-0.117,2.25-0.328,4.113-0.633,5.59
	s-0.797,2.772-1.477,3.885c-0.68,1.113-1.6,1.916-2.76,2.408S294.082,32.559,292.348,32.559z M343.311,70.914
	c-3.375,0-6.211-0.381-8.508-1.143s-4.125-1.945-5.484-3.551c-1.359-1.605-2.326-3.521-2.9-5.748
	c-0.574-2.227-0.861-4.922-0.861-8.086V11.711h14.203v43.066c0,0.797,0.035,1.477,0.105,2.039s0.211,1.178,0.422,1.846
	s0.574,1.184,1.09,1.547c0.516,0.364,1.16,0.545,1.934,0.545s1.418-0.181,1.934-0.545c0.516-0.363,0.879-0.879,1.09-1.547
	s0.346-1.283,0.404-1.846s0.088-1.242,0.088-2.039V11.711h14.238v40.676c0,3.164-0.293,5.859-0.879,8.086
	c-0.586,2.227-1.553,4.143-2.9,5.748c-1.348,1.605-3.176,2.79-5.484,3.551S346.662,70.914,343.311,70.914z M368.862,70V11.711
	h10.125l10.652,24.961V11.711h11.777V70h-9.738l-10.582-27.422V70H368.862z M409.637,70V11.711h14.238V70H409.637z M457.882,69.631
	c-2.355,0.855-5.197,1.283-8.525,1.283s-6.164-0.428-8.508-1.283s-4.207-2.132-5.59-3.832c-1.383-1.699-2.379-3.703-2.988-6.012
	c-0.609-2.308-0.914-5.033-0.914-8.174V30.098c0-3.141,0.305-5.865,0.914-8.174c0.609-2.308,1.605-4.312,2.988-6.012
	c1.383-1.699,3.246-2.976,5.59-3.832c2.344-0.855,5.18-1.283,8.508-1.283s6.17,0.428,8.525,1.283
	c2.355,0.856,4.23,2.133,5.625,3.832c1.395,1.7,2.402,3.704,3.023,6.012c0.621,2.309,0.932,5.033,0.932,8.174v21.516
	c0,3.141-0.311,5.866-0.932,8.174c-0.621,2.309-1.629,4.313-3.023,6.012C462.112,67.499,460.237,68.775,457.882,69.631z
	 M449.356,61.035c0.773,0,1.406-0.17,1.898-0.51c0.492-0.339,0.844-0.838,1.055-1.494c0.211-0.656,0.346-1.253,0.404-1.793
	c0.059-0.539,0.088-1.207,0.088-2.004V26.441c0-0.796-0.029-1.464-0.088-2.004c-0.059-0.539-0.193-1.13-0.404-1.775
	c-0.211-0.645-0.563-1.137-1.055-1.477c-0.492-0.339-1.125-0.51-1.898-0.51c-0.633,0-1.172,0.129-1.617,0.387
	c-0.445,0.258-0.779,0.557-1.002,0.896c-0.223,0.34-0.393,0.809-0.51,1.406s-0.182,1.09-0.193,1.477s-0.018,0.92-0.018,1.6v28.793
	c0,0.656,0.006,1.184,0.018,1.582c0.012,0.399,0.076,0.896,0.193,1.494s0.287,1.067,0.51,1.406c0.223,0.34,0.557,0.645,1.002,0.914
	C448.185,60.9,448.724,61.035,449.356,61.035z M474.908,70V11.711h10.125l10.652,24.961V11.711h11.777V70h-9.738l-10.582-27.422V70
	H474.908z"/>
</svg>
