<svg width="20" height="20" viewBox="0 0 20 20" fill="none" xmlns="http://www.w3.org/2000/svg">
<path fill-rule="evenodd" clip-rule="evenodd" d="M10 3.125C6.20304 3.125 3.125 6.20304 3.125 10C3.125 13.797 6.20304 16.875 10 16.875C13.797 16.875 16.875 13.797 16.875 10C16.875 6.20304 13.797 3.125 10 3.125ZM1.875 10C1.875 5.51269 5.51269 1.875 10 1.875C14.4873 1.875 18.125 5.51269 18.125 10C18.125 14.4873 14.4873 18.125 10 18.125C5.51269 18.125 1.875 14.4873 1.875 10Z" fill="black"/>
<path d="M10 15C10.5178 15 10.9375 14.5803 10.9375 14.0625C10.9375 13.5447 10.5178 13.125 10 13.125C9.48223 13.125 9.0625 13.5447 9.0625 14.0625C9.0625 14.5803 9.48223 15 10 15Z" fill="black"/>
<path fill-rule="evenodd" clip-rule="evenodd" d="M8.9237 5.83946C9.43762 5.62658 10.0031 5.57089 10.5487 5.67941C11.0943 5.78793 11.5954 6.0558 11.9887 6.44913C12.3821 6.84247 12.6499 7.3436 12.7585 7.88918C12.867 8.43475 12.8113 9.00025 12.5984 9.51416C12.3855 10.0281 12.0251 10.4673 11.5625 10.7764C11.2758 10.968 10.9578 11.1042 10.625 11.18V11.2504C10.625 11.5955 10.3452 11.8754 10 11.8754C9.65482 11.8754 9.375 11.5955 9.375 11.2504V10.6254C9.375 10.4596 9.44085 10.3006 9.55806 10.1834C9.67527 10.0662 9.83424 10.0004 10 10.0004C10.309 10.0004 10.6111 9.90873 10.8681 9.73704C11.125 9.56535 11.3253 9.32132 11.4436 9.03581C11.5618 8.7503 11.5928 8.43613 11.5325 8.13304C11.4722 7.82994 11.3234 7.55153 11.1049 7.33301C10.8863 7.11449 10.6079 6.96568 10.3048 6.90539C10.0017 6.8451 9.68757 6.87604 9.40206 6.99431C9.11655 7.11257 8.87252 7.31284 8.70083 7.56979C8.52914 7.82674 8.4375 8.12883 8.4375 8.43787C8.4375 8.78305 8.15768 9.06287 7.8125 9.06287C7.46732 9.06287 7.1875 8.78305 7.1875 8.43787C7.1875 7.88161 7.35245 7.33784 7.66149 6.87533C7.97053 6.41281 8.40979 6.05233 8.9237 5.83946Z" fill="black"/>
</svg>
